\contentsline {chapter}{\numberline {1}My Main Page}{1}{chapter.1}
\contentsline {chapter}{\numberline {2}Class Index}{3}{chapter.2}
\contentsline {section}{\numberline {2.1}Class List}{3}{section.2.1}
\contentsline {chapter}{\numberline {3}Class Documentation}{5}{chapter.3}
\contentsline {section}{\numberline {3.1}Point Class Reference}{5}{section.3.1}
\contentsline {subsection}{\numberline {3.1.1}Detailed Description}{5}{subsection.3.1.1}
\contentsline {section}{\numberline {3.2}Polydata Class Reference}{5}{section.3.2}
\contentsline {chapter}{Index}{7}{section*.5}
