\relax 
\providecommand\hyper@newdestlabel[2]{}
\providecommand\HyperFirstAtBeginDocument{\AtBeginDocument}
\HyperFirstAtBeginDocument{\ifx\hyper@anchor\@undefined
\global\let\oldcontentsline\contentsline
\gdef\contentsline#1#2#3#4{\oldcontentsline{#1}{#2}{#3}}
\global\let\oldnewlabel\newlabel
\gdef\newlabel#1#2{\newlabelxx{#1}#2}
\gdef\newlabelxx#1#2#3#4#5#6{\oldnewlabel{#1}{{#2}{#3}}}
\AtEndDocument{\ifx\hyper@anchor\@undefined
\let\contentsline\oldcontentsline
\let\newlabel\oldnewlabel
\fi}
\fi}
\global\let\hyper@last\relax 
\gdef\HyperFirstAtBeginDocument#1{#1}
\providecommand\HyField@AuxAddToFields[1]{}
\providecommand\HyField@AuxAddToCoFields[2]{}
\providecommand \oddpage@label [2]{}
\@writefile{toc}{\contentsline {chapter}{\numberline {1}My Main Page}{1}{chapter.1}}
\@writefile{lof}{\addvspace {10\p@ }}
\@writefile{lot}{\addvspace {10\p@ }}
\newlabel{index}{{1}{1}{My Main Page}{chapter.1}{}}
\@writefile{toc}{\contentsline {chapter}{\numberline {2}Class Index}{3}{chapter.2}}
\@writefile{lof}{\addvspace {10\p@ }}
\@writefile{lot}{\addvspace {10\p@ }}
\@writefile{toc}{\contentsline {section}{\numberline {2.1}Class List}{3}{section.2.1}}
\@writefile{toc}{\contentsline {chapter}{\numberline {3}Class Documentation}{5}{chapter.3}}
\@writefile{lof}{\addvspace {10\p@ }}
\@writefile{lot}{\addvspace {10\p@ }}
\@writefile{toc}{\contentsline {section}{\numberline {3.1}Point Class Reference}{5}{section.3.1}}
\newlabel{class_point}{{3.1}{5}{Point Class Reference}{section.3.1}{}}
\newlabel{class_point_a4d43f5247afe8c85c6da1aa39dbcc738}{{3.1}{5}{Public Member Functions}{section*.2}{}}
\newlabel{class_point_a16492a6e9a476158eb61d6e8303ef645}{{3.1}{5}{Public Member Functions}{section*.2}{}}
\newlabel{class_point_a76c5855c06d98aed16b5796a9a50bbee}{{3.1}{5}{Public Member Functions}{section*.2}{}}
\newlabel{class_point_ab99c56589bc8ad5fa5071387110a5bc7}{{3.1}{5}{Public Attributes}{section*.3}{}}
\newlabel{class_point_afa38be143ae800e6ad69ce8ed4df62d8}{{3.1}{5}{Public Attributes}{section*.3}{}}
\newlabel{class_point_a05ba3b1dfcb19430582ae953cbbfbded}{{3.1}{5}{Public Attributes}{section*.3}{}}
\@writefile{toc}{\contentsline {subsection}{\numberline {3.1.1}Detailed Description}{5}{subsection.3.1.1}}
\@writefile{toc}{\contentsline {section}{\numberline {3.2}Polydata Class Reference}{5}{section.3.2}}
\newlabel{class_polydata}{{3.2}{5}{Polydata Class Reference}{section.3.2}{}}
\newlabel{class_polydata_aceafba854bbf80d40a7a3fcadedf6d9a}{{3.2}{5}{Public Member Functions}{section*.4}{}}
\newlabel{class_polydata_aacda619ceb5544aed851fbe55256a44d}{{3.2}{5}{Public Member Functions}{section*.4}{}}
\newlabel{class_polydata_a1671af76f3e1d280a6d99ce1ad3051f0}{{3.2}{5}{Public Member Functions}{section*.4}{}}
\newlabel{class_polydata_a5121648c1f6ea2e07280e93ceecca76c}{{3.2}{5}{Public Member Functions}{section*.4}{}}
\newlabel{class_polydata_ab78a78671008f83137da769ecb4e4dfb}{{3.2}{5}{Public Member Functions}{section*.4}{}}
\newlabel{class_polydata_a0a3c2e4bd936fde8a9f4c051698a4ff8}{{3.2}{5}{Public Member Functions}{section*.4}{}}
\newlabel{class_polydata_a61be9407a1853c87727b3f67116e2b4d}{{3.2}{5}{Public Member Functions}{section*.4}{}}
\@writefile{toc}{\contentsline {chapter}{Index}{7}{section*.5}}
